module novetta/Agamotto

go 1.16

require (
	github.com/gorilla/mux v1.8.0 // indirect
	github.com/jinzhu/gorm v1.9.16 // indirect
	github.com/joho/godotenv v1.3.0 // indirect
	github.com/lib/pq v1.10.2 // indirect
)
